<?xml version="1.0" encoding="UTF-8"?>
<session version="1.0">
<refactoring comment="Copy element &apos;BusyFlag.java&apos; to &apos;Chapter5 - Examples of Thread Programming/src/(default package)&apos;&#x0D;&#x0A;- Original project: &apos;Chapter4 - Wait and Notify&apos;&#x0D;&#x0A;- Destination element: &apos;Chapter5 - Examples of Thread Programming/src/(default package)&apos;&#x0D;&#x0A;- Original element: &apos;BusyFlag.java&apos;" description="Copy compilation unit" destination="=Chapter5 - Examples of Thread Programming/src&lt;" element1="/src&lt;{BusyFlag.java" files="0" flags="589830" folders="0" id="org.eclipse.jdt.ui.copy" policy="org.eclipse.jdt.ui.copyResources" stamp="1565102935237" units="1" version="1.0"/>
</session>